Analysis Potential Customer Bank Portugal
…
bank %>% 
  group_by(education, job) 

## # A tibble: 45,211 x 17
## # Groups:   education, job [48]
##      age job   marital education default balance housing loan  contact   day
##    <int> <chr> <chr>   <chr>     <chr>     <int> <chr>   <chr> <chr>   <int>
##  1    58 mana married tertiary  no         2143 yes     no    unknown     5
##  2    44 tech single  secondary no           29 yes     no    unknown     5
##  3    33 entr married secondary no            2 yes     yes   unknown     5
##  4    47 blue married unknown   no         1506 yes     no    unknown     5
##  5    33 unkn single  unknown   no            1 no      no    unknown     5
##  6    35 mana married tertiary  no          231 yes     no    unknown     5
##  7    28 mana single  tertiary  no          447 yes     yes   unknown     5
##  8    42 entr divorc tertiary  yes           2 yes     no    unknown     5
##  9    58 reti married primary   no          121 yes     no    unknown     5
## 10    43 tech single  secondary no          593 yes     no    unknown     5
## #  with 45,201 more rows, and 7 more variables: month <chr>, duration <int>,
## #   campaign <int>, pdays <int>, previous <int>, poutcome <chr>, y <chr>
…
